[
    {
        "name": "Fedora Workstation",
        "version": "41",
        "desktop": "GNOME",
        "size": 2458187776,
        "is_auto_installable": true,
        "is_live_img": true,
        "is_featured": true,
        "dl_link": "/pub/fedora/linux/releases/41/Workstation/x86_64/iso/Fedora-Workstation-Live-x86_64-41-1.4.iso",
        "hash256": "a2dd3caf3224b8f3a640d9e31b1016d2a4e98a6d7cb435a1e2030235976d6da2",
        "torrent_link": "/torrents/Fedora-Workstation-Live-x86_64-41.torrent"
    },
    {
        "name": "Fedora KDE Plasma",
        "version": "41",
        "desktop": "KDE Plasma",
        "size": 2806382592,
        "is_auto_installable": true,
        "is_live_img": true,
        "is_featured": true,
        "is_default": true,
        "dl_link": "/pub/fedora/linux/releases/41/Spins/x86_64/iso/Fedora-KDE-Live-x86_64-41-1.4.iso",
        "hash256": "9a4dc999cb2b8345b4970f7ff6480a0f7589ef2e74f753aa04a54932c4946ec3",
        "torrent_link": "/torrents/Fedora-KDE-Live-x86_64-41.torrent"
    },
    {
        "name": "Fedora Silverblue",
        "version": "41",
        "desktop": "GNOME",
        "size": 3002775552,
        "is_auto_installable": true,
        "dl_link": "/pub/fedora/linux/releases/41/Silverblue/x86_64/iso/Fedora-Silverblue-ostree-x86_64-41-1.4.iso",
        "hash256": "69c77d5f939808c595a0ff089b5cf43c13f8e794d57890c93f509c94ea96618e",
        "torrent_link": "/torrents/Fedora-Silverblue-ostree-x86_64-41.torrent",
        "ostree_args": "--osname=\"fedora\" --remote=\"fedora\" --url=\"file:///ostree/repo\" --ref=\"fedora/41/x86_64/silverblue\" --nogpg"
    },
    {
        "name": "Fedora Kinoite",
        "version": "41",
        "desktop": "KDE Plasma",
        "size": 3752888320,
        "is_auto_installable": true,
        "dl_link": "/pub/fedora/linux/releases/41/Kinoite/x86_64/iso/Fedora-Kinoite-ostree-x86_64-41-1.4.iso",
        "hash256": "2564128747a62dc642409c1e52f60d281c853069b1833e9c85d6abce4b3cd89d",
        "torrent_link": "/torrents/Fedora-Kinoite-ostree-x86_64-41.torrent",
        "ostree_args": "--osname=\"fedora\" --remote=\"fedora\" --url=\"file:///ostree/repo\" --ref=\"fedora/41/x86_64/kinoite\" --nogpg"
    },
    {
        "name": "Fedora Everything",
        "version": "41",
        "size": 944969728,
        "is_advanced": true,
        "is_base_netinstall": true,
        "dl_link": "/pub/fedora/linux/releases/41/Everything/x86_64/iso/Fedora-Everything-netinst-x86_64-41-1.4.iso",
        "hash256": "bc943f6b426ef8db9587715d87d6361c4048146f3aadd36a9dcbab2b33fe320e"
    }
]